^C:\USERS\CLAY\DOCUMENTS\GITHUB\FULLLIFE-THERPG-SDK2013\SP\SRC\LIB\PUBLIC\MATHLIB.LIB|C:\USERS\CLAY\DOCUMENTS\GITHUB\FULLLIFE-THERPG-SDK2013\SP\SRC\LIB\PUBLIC\TIER0.LIB|C:\USERS\CLAY\DOCUMENTS\GITHUB\FULLLIFE-THERPG-SDK2013\SP\SRC\LIB\PUBLIC\TIER1.LIB|C:\USERS\CLAY\DOCUMENTS\GITHUB\FULLLIFE-THERPG-SDK2013\SP\SRC\LIB\PUBLIC\TIER2.LIB|C:\USERS\CLAY\DOCUMENTS\GITHUB\FULLLIFE-THERPG-SDK2013\SP\SRC\LIB\PUBLIC\VMPI.LIB|C:\USERS\CLAY\DOCUMENTS\GITHUB\FULLLIFE-THERPG-SDK2013\SP\SRC\LIB\PUBLIC\VSTDLIB.LIB|C:\USERS\CLAY\DOCUMENTS\GITHUB\FULLLIFE-THERPG-SDK2013\SP\SRC\UTILS\VVIS\RELEASE\BSPLIB.OBJ|C:\USERS\CLAY\DOCUMENTS\GITHUB\FULLLIFE-THERPG-SDK2013\SP\SRC\UTILS\VVIS\RELEASE\CMDLIB.OBJ|C:\USERS\CLAY\DOCUMENTS\GITHUB\FULLLIFE-THERPG-SDK2013\SP\SRC\UTILS\VVIS\RELEASE\COLLISIONUTILS.OBJ|C:\USERS\CLAY\DOCUMENTS\GITHUB\FULLLIFE-THERPG-SDK2013\SP\SRC\UTILS\VVIS\RELEASE\FILESYSTEM_HELPERS.OBJ|C:\USERS\CLAY\DOCUMENTS\GITHUB\FULLLIFE-THERPG-SDK2013\SP\SRC\UTILS\VVIS\RELEASE\FLOW.OBJ|C:\USERS\CLAY\DOCUMENTS\GITHUB\FULLLIFE-THERPG-SDK2013\SP\SRC\UTILS\VVIS\RELEASE\LOADCMDLINE.OBJ|C:\USERS\CLAY\DOCUMENTS\GITHUB\FULLLIFE-THERPG-SDK2013\SP\SRC\UTILS\VVIS\RELEASE\LUMPFILES.OBJ|C:\USERS\CLAY\DOCUMENTS\GITHUB\FULLLIFE-THERPG-SDK2013\SP\SRC\UTILS\VVIS\RELEASE\MPIVIS.OBJ|C:\USERS\CLAY\DOCUMENTS\GITHUB\FULLLIFE-THERPG-SDK2013\SP\SRC\UTILS\VVIS\RELEASE\MPI_STATS.OBJ|C:\USERS\CLAY\DOCUMENTS\GITHUB\FULLLIFE-THERPG-SDK2013\SP\SRC\UTILS\VVIS\RELEASE\MYSQLDATABASE.OBJ|C:\USERS\CLAY\DOCUMENTS\GITHUB\FULLLIFE-THERPG-SDK2013\SP\SRC\UTILS\VVIS\RELEASE\PACIFIER.OBJ|C:\USERS\CLAY\DOCUMENTS\GITHUB\FULLLIFE-THERPG-SDK2013\SP\SRC\UTILS\VVIS\RELEASE\POINTEROVERRIDE.OBJ|C:\USERS\CLAY\DOCUMENTS\GITHUB\FULLLIFE-THERPG-SDK2013\SP\SRC\UTILS\VVIS\RELEASE\SCRATCHPAD3D.OBJ|C:\USERS\CLAY\DOCUMENTS\GITHUB\FULLLIFE-THERPG-SDK2013\SP\SRC\UTILS\VVIS\RELEASE\SCRATCHPAD_HELPERS.OBJ|C:\USERS\CLAY\DOCUMENTS\GITHUB\FULLLIFE-THERPG-SDK2013\SP\SRC\UTILS\VVIS\RELEASE\SCRIPLIB.OBJ|C:\USERS\CLAY\DOCUMENTS\GITHUB\FULLLIFE-THERPG-SDK2013\SP\SRC\UTILS\VVIS\RELEASE\THREADS.OBJ|C:\USERS\CLAY\DOCUMENTS\GITHUB\FULLLIFE-THERPG-SDK2013\SP\SRC\UTILS\VVIS\RELEASE\TOOLS_MINIDUMP.OBJ|C:\USERS\CLAY\DOCUMENTS\GITHUB\FULLLIFE-THERPG-SDK2013\SP\SRC\UTILS\VVIS\RELEASE\VMPI_TOOLS_SHARED.OBJ|C:\USERS\CLAY\DOCUMENTS\GITHUB\FULLLIFE-THERPG-SDK2013\SP\SRC\UTILS\VVIS\RELEASE\VVIS.OBJ|C:\USERS\CLAY\DOCUMENTS\GITHUB\FULLLIFE-THERPG-SDK2013\SP\SRC\UTILS\VVIS\RELEASE\WATERDIST.OBJ|C:\USERS\CLAY\DOCUMENTS\GITHUB\FULLLIFE-THERPG-SDK2013\SP\SRC\UTILS\VVIS\RELEASE\ZIP_UTILS.OBJ
C:\PROGRAM FILES (X86)\MICROSOFT SDKS\WINDOWS\V7.1A\LIB\SHELL32.LIB
C:\PROGRAM FILES (X86)\MICROSOFT SDKS\WINDOWS\V7.1A\LIB\USER32.LIB
C:\PROGRAM FILES (X86)\MICROSOFT SDKS\WINDOWS\V7.1A\LIB\ADVAPI32.LIB
C:\PROGRAM FILES (X86)\MICROSOFT SDKS\WINDOWS\V7.1A\LIB\GDI32.LIB
C:\PROGRAM FILES (X86)\MICROSOFT SDKS\WINDOWS\V7.1A\LIB\COMDLG32.LIB
C:\PROGRAM FILES (X86)\MICROSOFT SDKS\WINDOWS\V7.1A\LIB\OLE32.LIB
C:\PROGRAM FILES (X86)\MICROSOFT SDKS\WINDOWS\V7.1A\LIB\ODBC32.LIB
C:\PROGRAM FILES (X86)\MICROSOFT SDKS\WINDOWS\V7.1A\LIB\ODBCCP32.LIB
C:\PROGRAM FILES (X86)\MICROSOFT SDKS\WINDOWS\V7.1A\LIB\WS2_32.LIB
C:\USERS\CLAY\DOCUMENTS\GITHUB\FULLLIFE-THERPG-SDK2013\SP\SRC\UTILS\VVIS\RELEASE\POINTEROVERRIDE.OBJ
C:\USERS\CLAY\DOCUMENTS\GITHUB\FULLLIFE-THERPG-SDK2013\SP\SRC\UTILS\VVIS\RELEASE\BSPLIB.OBJ
C:\USERS\CLAY\DOCUMENTS\GITHUB\FULLLIFE-THERPG-SDK2013\SP\SRC\UTILS\VVIS\RELEASE\CMDLIB.OBJ
C:\USERS\CLAY\DOCUMENTS\GITHUB\FULLLIFE-THERPG-SDK2013\SP\SRC\UTILS\VVIS\RELEASE\COLLISIONUTILS.OBJ
C:\USERS\CLAY\DOCUMENTS\GITHUB\FULLLIFE-THERPG-SDK2013\SP\SRC\UTILS\VVIS\RELEASE\FILESYSTEM_HELPERS.OBJ
C:\USERS\CLAY\DOCUMENTS\GITHUB\FULLLIFE-THERPG-SDK2013\SP\SRC\UTILS\VVIS\RELEASE\FLOW.OBJ
C:\USERS\CLAY\DOCUMENTS\GITHUB\FULLLIFE-THERPG-SDK2013\SP\SRC\UTILS\VVIS\RELEASE\LOADCMDLINE.OBJ
C:\USERS\CLAY\DOCUMENTS\GITHUB\FULLLIFE-THERPG-SDK2013\SP\SRC\UTILS\VVIS\RELEASE\LUMPFILES.OBJ
C:\USERS\CLAY\DOCUMENTS\GITHUB\FULLLIFE-THERPG-SDK2013\SP\SRC\UTILS\VVIS\RELEASE\MPI_STATS.OBJ
C:\USERS\CLAY\DOCUMENTS\GITHUB\FULLLIFE-THERPG-SDK2013\SP\SRC\UTILS\VVIS\RELEASE\MPIVIS.OBJ
C:\USERS\CLAY\DOCUMENTS\GITHUB\FULLLIFE-THERPG-SDK2013\SP\SRC\UTILS\VVIS\RELEASE\MYSQLDATABASE.OBJ
C:\USERS\CLAY\DOCUMENTS\GITHUB\FULLLIFE-THERPG-SDK2013\SP\SRC\UTILS\VVIS\RELEASE\PACIFIER.OBJ
C:\USERS\CLAY\DOCUMENTS\GITHUB\FULLLIFE-THERPG-SDK2013\SP\SRC\UTILS\VVIS\RELEASE\SCRATCHPAD3D.OBJ
C:\USERS\CLAY\DOCUMENTS\GITHUB\FULLLIFE-THERPG-SDK2013\SP\SRC\UTILS\VVIS\RELEASE\SCRATCHPAD_HELPERS.OBJ
C:\USERS\CLAY\DOCUMENTS\GITHUB\FULLLIFE-THERPG-SDK2013\SP\SRC\UTILS\VVIS\RELEASE\SCRIPLIB.OBJ
C:\USERS\CLAY\DOCUMENTS\GITHUB\FULLLIFE-THERPG-SDK2013\SP\SRC\UTILS\VVIS\RELEASE\THREADS.OBJ
C:\USERS\CLAY\DOCUMENTS\GITHUB\FULLLIFE-THERPG-SDK2013\SP\SRC\UTILS\VVIS\RELEASE\TOOLS_MINIDUMP.OBJ
C:\USERS\CLAY\DOCUMENTS\GITHUB\FULLLIFE-THERPG-SDK2013\SP\SRC\UTILS\VVIS\RELEASE\VMPI_TOOLS_SHARED.OBJ
C:\USERS\CLAY\DOCUMENTS\GITHUB\FULLLIFE-THERPG-SDK2013\SP\SRC\UTILS\VVIS\RELEASE\VVIS.OBJ
C:\USERS\CLAY\DOCUMENTS\GITHUB\FULLLIFE-THERPG-SDK2013\SP\SRC\UTILS\VVIS\RELEASE\WATERDIST.OBJ
C:\USERS\CLAY\DOCUMENTS\GITHUB\FULLLIFE-THERPG-SDK2013\SP\SRC\UTILS\VVIS\RELEASE\ZIP_UTILS.OBJ
C:\USERS\CLAY\DOCUMENTS\GITHUB\FULLLIFE-THERPG-SDK2013\SP\SRC\LIB\PUBLIC\MATHLIB.LIB
C:\USERS\CLAY\DOCUMENTS\GITHUB\FULLLIFE-THERPG-SDK2013\SP\SRC\LIB\PUBLIC\TIER0.LIB
C:\USERS\CLAY\DOCUMENTS\GITHUB\FULLLIFE-THERPG-SDK2013\SP\SRC\LIB\PUBLIC\TIER1.LIB
C:\USERS\CLAY\DOCUMENTS\GITHUB\FULLLIFE-THERPG-SDK2013\SP\SRC\LIB\PUBLIC\TIER2.LIB
C:\USERS\CLAY\DOCUMENTS\GITHUB\FULLLIFE-THERPG-SDK2013\SP\SRC\LIB\PUBLIC\VMPI.LIB
C:\USERS\CLAY\DOCUMENTS\GITHUB\FULLLIFE-THERPG-SDK2013\SP\SRC\LIB\PUBLIC\VSTDLIB.LIB
C:\WINDOWS\GLOBALIZATION\SORTING\SORTDEFAULT.NLS
C:\PROGRAM FILES (X86)\MICROSOFT VISUAL STUDIO 12.0\VC\LIB\LIBCPMT.LIB
C:\PROGRAM FILES (X86)\MICROSOFT VISUAL STUDIO 12.0\VC\LIB\LIBCMT.LIB
C:\PROGRAM FILES (X86)\MICROSOFT VISUAL STUDIO 12.0\VC\LIB\OLDNAMES.LIB
C:\PROGRAM FILES (X86)\MICROSOFT SDKS\WINDOWS\V7.1A\LIB\UUID.LIB
C:\PROGRAM FILES (X86)\MICROSOFT SDKS\WINDOWS\V7.1A\LIB\KERNEL32.LIB
C:\WINDOWS\SYSTEM32\TZRES.DLL
C:\PROGRAM FILES (X86)\MICROSOFT VISUAL STUDIO 12.0\VC\BIN\1033\LINKUI.DLL
