^C:\USERS\CLAY\DOCUMENTS\GITHUB\FULLLIFE-THERPG-SDK2013\SP\SRC\UTILS\PHONEMEEXTRACTOR\EXTRACTOR_UTILS.CPP
C:\USERS\CLAY\DOCUMENTS\GITHUB\FULLLIFE-THERPG-SDK2013\SP\SRC\UTILS\PHONEMEEXTRACTOR\DEBUG\VC120.PDB
^C:\USERS\CLAY\DOCUMENTS\GITHUB\FULLLIFE-THERPG-SDK2013\SP\SRC\PUBLIC\TIER0\MEMOVERRIDE.CPP
C:\USERS\CLAY\DOCUMENTS\GITHUB\FULLLIFE-THERPG-SDK2013\SP\SRC\UTILS\PHONEMEEXTRACTOR\DEBUG\VC120.PDB
^C:\USERS\CLAY\DOCUMENTS\GITHUB\FULLLIFE-THERPG-SDK2013\SP\SRC\PUBLIC\PHONEMECONVERTER.CPP
C:\USERS\CLAY\DOCUMENTS\GITHUB\FULLLIFE-THERPG-SDK2013\SP\SRC\UTILS\PHONEMEEXTRACTOR\DEBUG\VC120.PDB
^C:\USERS\CLAY\DOCUMENTS\GITHUB\FULLLIFE-THERPG-SDK2013\SP\SRC\UTILS\PHONEMEEXTRACTOR\PHONEMEEXTRACTOR.CPP
C:\USERS\CLAY\DOCUMENTS\GITHUB\FULLLIFE-THERPG-SDK2013\SP\SRC\UTILS\PHONEMEEXTRACTOR\DEBUG\VC120.PDB
^C:\USERS\CLAY\DOCUMENTS\GITHUB\FULLLIFE-THERPG-SDK2013\SP\SRC\PUBLIC\SENTENCE.CPP
C:\USERS\CLAY\DOCUMENTS\GITHUB\FULLLIFE-THERPG-SDK2013\SP\SRC\UTILS\PHONEMEEXTRACTOR\DEBUG\VC120.PDB
