c:\users\clay\documents\github\fulllife-therpg-sdk2013\sp\src\utils\vrad_launcher\debug\vrad_launcher.pch
c:\users\clay\documents\github\fulllife-therpg-sdk2013\sp\src\utils\vrad_launcher\release\vc120.pdb
c:\users\clay\documents\github\fulllife-therpg-sdk2013\sp\src\utils\vrad_launcher\release\stdafx.obj
c:\users\clay\documents\github\fulllife-therpg-sdk2013\sp\src\utils\vrad_launcher\release\vrad_launcher.obj
c:\users\clay\documents\github\fulllife-therpg-sdk2013\sp\src\utils\vrad_launcher\release\pointeroverride.obj
c:\users\clay\documents\school\2017-2018\ap computer science\projects\unit 10\fulllife-therpg-sdk2013\sp\src\utils\vrad_launcher\vrad_launcher.vpc.sentinel
c:\users\clay\documents\github\fulllife-therpg-sdk2013\sp\src\utils\vrad_launcher\release\vrad.exe
c:\users\clay\documents\github\fulllife-therpg-sdk2013\sp\src\utils\vrad_launcher\release\vrad.pdb
c:\users\clay\documents\github\fulllife-therpg-sdk2013\sp\src\utils\vrad_launcher\release\vrad.lib
c:\users\clay\documents\github\fulllife-therpg-sdk2013\sp\src\utils\vrad_launcher\release\vrad.exp
c:\users\clay\documents\github\fulllife-therpg-sdk2013\sp\src\utils\vrad_launcher\.\release\.\vrad.exe
c:\users\clay\documents\github\fulllife-therpg-sdk2013\sp\src\utils\vrad_launcher\release\vrad_launcher.tlog\cl.command.1.tlog
c:\users\clay\documents\github\fulllife-therpg-sdk2013\sp\src\utils\vrad_launcher\release\vrad_launcher.tlog\cl.read.1.tlog
c:\users\clay\documents\github\fulllife-therpg-sdk2013\sp\src\utils\vrad_launcher\release\vrad_launcher.tlog\cl.write.1.tlog
c:\users\clay\documents\github\fulllife-therpg-sdk2013\sp\src\utils\vrad_launcher\release\vrad_launcher.tlog\custombuild.command.1.tlog
c:\users\clay\documents\github\fulllife-therpg-sdk2013\sp\src\utils\vrad_launcher\release\vrad_launcher.tlog\custombuild.read.1.tlog
c:\users\clay\documents\github\fulllife-therpg-sdk2013\sp\src\utils\vrad_launcher\release\vrad_launcher.tlog\custombuild.write.1.tlog
c:\users\clay\documents\github\fulllife-therpg-sdk2013\sp\src\utils\vrad_launcher\release\vrad_launcher.tlog\link.command.1.tlog
c:\users\clay\documents\github\fulllife-therpg-sdk2013\sp\src\utils\vrad_launcher\release\vrad_launcher.tlog\link.read.1.tlog
c:\users\clay\documents\github\fulllife-therpg-sdk2013\sp\src\utils\vrad_launcher\release\vrad_launcher.tlog\link.write.1.tlog
c:\users\clay\documents\github\fulllife-therpg-sdk2013\sp\src\utils\vrad_launcher\release\vrad_launcher.tlog\vrad_launcher.write.1u.tlog
