^C:\USERS\CLAY\DOCUMENTS\GITHUB\FULLLIFE-THERPG-SDK2013\SP\SRC\PUBLIC\TIER0\POINTEROVERRIDE.ASM
C:\USERS\CLAY\DOCUMENTS\GITHUB\FULLLIFE-THERPG-SDK2013\SP\SRC\UTILS\VRAD\RELEASE\POINTEROVERRIDE.OBJ
^C:\USERS\CLAY\DOCUMENTS\GITHUB\FULLLIFE-THERPG-SDK2013\SP\SRC\UTILS\VRAD\VRAD_DLL.VPC
C:\USERS\CLAY\DOCUMENTS\SCHOOL\2017-2018\AP COMPUTER SCIENCE\PROJECTS\UNIT 10\FULLLIFE-THERPG-SDK2013\SP\SRC\UTILS\VRAD\VRAD_DLL.VPC.SENTINEL
