^C:\USERS\CLAY\DOCUMENTS\GITHUB\FULLLIFE-THERPG-SDK2013\SP\SRC\UTILS\VVIS_LAUNCHER\STDAFX.CPP
C:\USERS\CLAY\DOCUMENTS\GITHUB\FULLLIFE-THERPG-SDK2013\SP\SRC\UTILS\VVIS_LAUNCHER\DEBUG\VVIS_LAUNCHER.PCH
C:\USERS\CLAY\DOCUMENTS\GITHUB\FULLLIFE-THERPG-SDK2013\SP\SRC\UTILS\VVIS_LAUNCHER\DEBUG\VC120.PDB
C:\USERS\CLAY\DOCUMENTS\GITHUB\FULLLIFE-THERPG-SDK2013\SP\SRC\UTILS\VVIS_LAUNCHER\DEBUG\VC120.IDB
C:\USERS\CLAY\DOCUMENTS\GITHUB\FULLLIFE-THERPG-SDK2013\SP\SRC\UTILS\VVIS_LAUNCHER\DEBUG\STDAFX.OBJ
^C:\USERS\CLAY\DOCUMENTS\GITHUB\FULLLIFE-THERPG-SDK2013\SP\SRC\PUBLIC\TIER0\MEMOVERRIDE.CPP
C:\USERS\CLAY\DOCUMENTS\GITHUB\FULLLIFE-THERPG-SDK2013\SP\SRC\UTILS\VVIS_LAUNCHER\DEBUG\VC120.PDB
C:\USERS\CLAY\DOCUMENTS\GITHUB\FULLLIFE-THERPG-SDK2013\SP\SRC\UTILS\VVIS_LAUNCHER\DEBUG\VC120.IDB
C:\USERS\CLAY\DOCUMENTS\GITHUB\FULLLIFE-THERPG-SDK2013\SP\SRC\UTILS\VVIS_LAUNCHER\DEBUG\MEMOVERRIDE.OBJ
^C:\USERS\CLAY\DOCUMENTS\GITHUB\FULLLIFE-THERPG-SDK2013\SP\SRC\UTILS\VVIS_LAUNCHER\VVIS_LAUNCHER.CPP
C:\USERS\CLAY\DOCUMENTS\GITHUB\FULLLIFE-THERPG-SDK2013\SP\SRC\UTILS\VVIS_LAUNCHER\DEBUG\VC120.PDB
C:\USERS\CLAY\DOCUMENTS\GITHUB\FULLLIFE-THERPG-SDK2013\SP\SRC\UTILS\VVIS_LAUNCHER\DEBUG\VC120.IDB
C:\USERS\CLAY\DOCUMENTS\GITHUB\FULLLIFE-THERPG-SDK2013\SP\SRC\UTILS\VVIS_LAUNCHER\DEBUG\VVIS_LAUNCHER.OBJ
