^C:\USERS\CLAY\DOCUMENTS\GITHUB\FULLLIFE-THERPG-SDK2013\SP\SRC\LIB\PUBLIC\TIER0.LIB|C:\USERS\CLAY\DOCUMENTS\GITHUB\FULLLIFE-THERPG-SDK2013\SP\SRC\LIB\PUBLIC\TIER1.LIB|C:\USERS\CLAY\DOCUMENTS\GITHUB\FULLLIFE-THERPG-SDK2013\SP\SRC\LIB\PUBLIC\VSTDLIB.LIB|C:\USERS\CLAY\DOCUMENTS\GITHUB\FULLLIFE-THERPG-SDK2013\SP\SRC\UTILS\VVIS_LAUNCHER\DEBUG\MEMOVERRIDE.OBJ|C:\USERS\CLAY\DOCUMENTS\GITHUB\FULLLIFE-THERPG-SDK2013\SP\SRC\UTILS\VVIS_LAUNCHER\DEBUG\POINTEROVERRIDE.OBJ|C:\USERS\CLAY\DOCUMENTS\GITHUB\FULLLIFE-THERPG-SDK2013\SP\SRC\UTILS\VVIS_LAUNCHER\DEBUG\STDAFX.OBJ|C:\USERS\CLAY\DOCUMENTS\GITHUB\FULLLIFE-THERPG-SDK2013\SP\SRC\UTILS\VVIS_LAUNCHER\DEBUG\VVIS_LAUNCHER.OBJ
C:\USERS\CLAY\DOCUMENTS\GITHUB\FULLLIFE-THERPG-SDK2013\SP\SRC\UTILS\VVIS_LAUNCHER\DEBUG\VVIS.ILK
C:\USERS\CLAY\DOCUMENTS\GITHUB\FULLLIFE-THERPG-SDK2013\SP\SRC\UTILS\VVIS_LAUNCHER\DEBUG\VVIS.EXE
C:\USERS\CLAY\DOCUMENTS\GITHUB\FULLLIFE-THERPG-SDK2013\SP\SRC\UTILS\VVIS_LAUNCHER\DEBUG\VVIS.PDB
