^C:\USERS\CLAY\DOCUMENTS\GITHUB\FULLLIFE-THERPG-SDK2013\SP\SRC\PUBLIC\TIER0\POINTEROVERRIDE.ASM
"C:\Program Files (x86)\Microsoft Visual Studio 12.0\VC\bin\ml.exe" /c /Cp /Zi /Fo".\Release\.\\pointeroverride.obj" "C:\Users\Clay\Documents\GitHub\FullLife-TheRPG-SDK2013\sp\src\public\tier0\pointeroverride.asm"
^C:\USERS\CLAY\DOCUMENTS\GITHUB\FULLLIFE-THERPG-SDK2013\SP\SRC\UTILS\VBSP\VBSP.VPC
if exist "..\..\devtools\bin\vpc.exe" "..\..\devtools\bin\vpc.exe" -crc2 "vbsp.vcxproj"if ERRORLEVEL 1 exit /b 1echo crc_complete > C:\Users\Clay\Documents\School\2017-2018\AP Computer Science\Projects\Unit 10\FullLife-TheRPG-SDK2013\sp\src\utils\vbsp\vbsp.vpc.sentinel
