^C:\Users\Clay\Documents\GitHub\FullLife-TheRPG-SDK2013\sp\src\materialsystem\stdshaders\game_shader_dx9_hl2.vcxproj
C:\Users\Clay\Documents\GitHub\FullLife-TheRPG-SDK2013\sp\src\materialsystem\stdshaders\Debug_dx9_mod_hl2\game_shader_dx9.lib
C:\Users\Clay\Documents\GitHub\FullLife-TheRPG-SDK2013\sp\src\materialsystem\stdshaders\Debug_dx9_mod_hl2\game_shader_dx9.exp
