^C:\USERS\CLAY\DOCUMENTS\GITHUB\FULLLIFE-THERPG-SDK2013\SP\SRC\PUBLIC\TIER0\POINTEROVERRIDE.ASM
C:\USERS\CLAY\DOCUMENTS\GITHUB\FULLLIFE-THERPG-SDK2013\SP\SRC\UTILS\QC_EYES\RELEASE\POINTEROVERRIDE.OBJ
^C:\USERS\CLAY\DOCUMENTS\GITHUB\FULLLIFE-THERPG-SDK2013\SP\SRC\UTILS\QC_EYES\QC_EYES.VPC
C:\USERS\CLAY\DOCUMENTS\SCHOOL\2017-2018\AP COMPUTER SCIENCE\PROJECTS\UNIT 10\FULLLIFE-THERPG-SDK2013\SP\SRC\UTILS\QC_EYES\QC_EYES.VPC.SENTINEL
