^C:\USERS\CLAY\DOCUMENTS\GITHUB\FULLLIFE-THERPG-SDK2013\SP\SRC\LIB\PUBLIC\TIER0.LIB|C:\USERS\CLAY\DOCUMENTS\GITHUB\FULLLIFE-THERPG-SDK2013\SP\SRC\LIB\PUBLIC\TIER1.LIB|C:\USERS\CLAY\DOCUMENTS\GITHUB\FULLLIFE-THERPG-SDK2013\SP\SRC\LIB\PUBLIC\VSTDLIB.LIB|C:\USERS\CLAY\DOCUMENTS\GITHUB\FULLLIFE-THERPG-SDK2013\SP\SRC\UTILS\QC_EYES\RELEASE\POINTEROVERRIDE.OBJ|C:\USERS\CLAY\DOCUMENTS\GITHUB\FULLLIFE-THERPG-SDK2013\SP\SRC\UTILS\QC_EYES\RELEASE\QC_EYES.OBJ|C:\USERS\CLAY\DOCUMENTS\GITHUB\FULLLIFE-THERPG-SDK2013\SP\SRC\UTILS\QC_EYES\RELEASE\QC_EYES.RES|C:\USERS\CLAY\DOCUMENTS\GITHUB\FULLLIFE-THERPG-SDK2013\SP\SRC\UTILS\QC_EYES\RELEASE\QC_EYESDLG.OBJ|C:\USERS\CLAY\DOCUMENTS\GITHUB\FULLLIFE-THERPG-SDK2013\SP\SRC\UTILS\QC_EYES\RELEASE\STDAFX.OBJ
C:\USERS\CLAY\DOCUMENTS\GITHUB\FULLLIFE-THERPG-SDK2013\SP\SRC\UTILS\QC_EYES\RELEASE\QC_EYES.EXE
C:\USERS\CLAY\DOCUMENTS\GITHUB\FULLLIFE-THERPG-SDK2013\SP\SRC\UTILS\QC_EYES\RELEASE\QC_EYES.PDB
