^C:\USERS\CLAY\DOCUMENTS\GITHUB\FULLLIFE-THERPG-SDK2013\SP\SRC\UTILS\HEIGHT2NORMAL\HEIGHT2NORMAL.CPP
C:\USERS\CLAY\DOCUMENTS\GITHUB\FULLLIFE-THERPG-SDK2013\SP\SRC\UTILS\HEIGHT2NORMAL\DEBUG\VC120.PDB
C:\USERS\CLAY\DOCUMENTS\GITHUB\FULLLIFE-THERPG-SDK2013\SP\SRC\UTILS\HEIGHT2NORMAL\DEBUG\VC120.IDB
C:\USERS\CLAY\DOCUMENTS\GITHUB\FULLLIFE-THERPG-SDK2013\SP\SRC\UTILS\HEIGHT2NORMAL\DEBUG\HEIGHT2NORMAL.OBJ
