^C:\USERS\CLAY\DOCUMENTS\GITHUB\FULLLIFE-THERPG-SDK2013\SP\SRC\LIB\PUBLIC\MATHLIB.LIB|C:\USERS\CLAY\DOCUMENTS\GITHUB\FULLLIFE-THERPG-SDK2013\SP\SRC\LIB\PUBLIC\TIER0.LIB|C:\USERS\CLAY\DOCUMENTS\GITHUB\FULLLIFE-THERPG-SDK2013\SP\SRC\LIB\PUBLIC\TIER1.LIB|C:\USERS\CLAY\DOCUMENTS\GITHUB\FULLLIFE-THERPG-SDK2013\SP\SRC\LIB\PUBLIC\TIER2.LIB|C:\USERS\CLAY\DOCUMENTS\GITHUB\FULLLIFE-THERPG-SDK2013\SP\SRC\LIB\PUBLIC\VSTDLIB.LIB|C:\USERS\CLAY\DOCUMENTS\GITHUB\FULLLIFE-THERPG-SDK2013\SP\SRC\UTILS\VICE\DEBUG\CMDLIB.OBJ|C:\USERS\CLAY\DOCUMENTS\GITHUB\FULLLIFE-THERPG-SDK2013\SP\SRC\UTILS\VICE\DEBUG\FILESYSTEM_HELPERS.OBJ|C:\USERS\CLAY\DOCUMENTS\GITHUB\FULLLIFE-THERPG-SDK2013\SP\SRC\UTILS\VICE\DEBUG\FILESYSTEM_INIT.OBJ|C:\USERS\CLAY\DOCUMENTS\GITHUB\FULLLIFE-THERPG-SDK2013\SP\SRC\UTILS\VICE\DEBUG\FILESYSTEM_TOOLS.OBJ|C:\USERS\CLAY\DOCUMENTS\GITHUB\FULLLIFE-THERPG-SDK2013\SP\SRC\UTILS\VICE\DEBUG\MEMOVERRIDE.OBJ|C:\USERS\CLAY\DOCUMENTS\GITHUB\FULLLIFE-THERPG-SDK2013\SP\SRC\UTILS\VICE\DEBUG\POINTEROVERRIDE.OBJ|C:\USERS\CLAY\DOCUMENTS\GITHUB\FULLLIFE-THERPG-SDK2013\SP\SRC\UTILS\VICE\DEBUG\VICE.OBJ
C:\PROGRAM FILES (X86)\MICROSOFT SDKS\WINDOWS\V7.1A\LIB\SHELL32.LIB
C:\PROGRAM FILES (X86)\MICROSOFT SDKS\WINDOWS\V7.1A\LIB\USER32.LIB
C:\PROGRAM FILES (X86)\MICROSOFT SDKS\WINDOWS\V7.1A\LIB\ADVAPI32.LIB
C:\PROGRAM FILES (X86)\MICROSOFT SDKS\WINDOWS\V7.1A\LIB\GDI32.LIB
C:\PROGRAM FILES (X86)\MICROSOFT SDKS\WINDOWS\V7.1A\LIB\COMDLG32.LIB
C:\PROGRAM FILES (X86)\MICROSOFT SDKS\WINDOWS\V7.1A\LIB\OLE32.LIB
C:\USERS\CLAY\DOCUMENTS\GITHUB\FULLLIFE-THERPG-SDK2013\SP\SRC\UTILS\VICE\DEBUG\POINTEROVERRIDE.OBJ
C:\USERS\CLAY\DOCUMENTS\GITHUB\FULLLIFE-THERPG-SDK2013\SP\SRC\UTILS\VICE\DEBUG\CMDLIB.OBJ
C:\USERS\CLAY\DOCUMENTS\GITHUB\FULLLIFE-THERPG-SDK2013\SP\SRC\UTILS\VICE\DEBUG\FILESYSTEM_HELPERS.OBJ
C:\USERS\CLAY\DOCUMENTS\GITHUB\FULLLIFE-THERPG-SDK2013\SP\SRC\UTILS\VICE\DEBUG\FILESYSTEM_INIT.OBJ
C:\USERS\CLAY\DOCUMENTS\GITHUB\FULLLIFE-THERPG-SDK2013\SP\SRC\UTILS\VICE\DEBUG\FILESYSTEM_TOOLS.OBJ
C:\USERS\CLAY\DOCUMENTS\GITHUB\FULLLIFE-THERPG-SDK2013\SP\SRC\UTILS\VICE\DEBUG\MEMOVERRIDE.OBJ
C:\USERS\CLAY\DOCUMENTS\GITHUB\FULLLIFE-THERPG-SDK2013\SP\SRC\UTILS\VICE\DEBUG\VICE.OBJ
C:\USERS\CLAY\DOCUMENTS\GITHUB\FULLLIFE-THERPG-SDK2013\SP\SRC\LIB\PUBLIC\MATHLIB.LIB
C:\USERS\CLAY\DOCUMENTS\GITHUB\FULLLIFE-THERPG-SDK2013\SP\SRC\LIB\PUBLIC\TIER0.LIB
C:\USERS\CLAY\DOCUMENTS\GITHUB\FULLLIFE-THERPG-SDK2013\SP\SRC\LIB\PUBLIC\TIER1.LIB
C:\USERS\CLAY\DOCUMENTS\GITHUB\FULLLIFE-THERPG-SDK2013\SP\SRC\LIB\PUBLIC\TIER2.LIB
C:\USERS\CLAY\DOCUMENTS\GITHUB\FULLLIFE-THERPG-SDK2013\SP\SRC\LIB\PUBLIC\VSTDLIB.LIB
C:\WINDOWS\GLOBALIZATION\SORTING\SORTDEFAULT.NLS
C:\PROGRAM FILES (X86)\MICROSOFT VISUAL STUDIO 12.0\VC\LIB\LIBCPMTD0.LIB
C:\PROGRAM FILES (X86)\MICROSOFT SDKS\WINDOWS\V7.1A\LIB\UUID.LIB
C:\PROGRAM FILES (X86)\MICROSOFT VISUAL STUDIO 12.0\VC\LIB\LIBCMTD.LIB
C:\PROGRAM FILES (X86)\MICROSOFT VISUAL STUDIO 12.0\VC\LIB\OLDNAMES.LIB
C:\PROGRAM FILES (X86)\MICROSOFT VISUAL STUDIO 12.0\VC\LIB\LIBCPMT.LIB
C:\PROGRAM FILES (X86)\MICROSOFT SDKS\WINDOWS\V7.1A\LIB\KERNEL32.LIB
C:\WINDOWS\SYSTEM32\TZRES.DLL
C:\PROGRAM FILES (X86)\MICROSOFT VISUAL STUDIO 12.0\VC\BIN\1033\LINKUI.DLL
C:\PROGRAM FILES (X86)\MICROSOFT SDKS\WINDOWS\V7.1A\BIN\RC.EXE
C:\PROGRAM FILES (X86)\MICROSOFT VISUAL STUDIO 12.0\VC\BIN\CVTRES.EXE
